/*checkcycles.i */
%module checkcycles
// Make log_helper.cxx include this header:
%{
#define SWIG_FILE_WITH_INIT

#include "libcheckcycles.hpp"

%}

// Make SWIG look into this header:
%include "libcheckcycles.hpp"
